[
  {
    "latin": "animus, animi, m",
    "type": "noun 2",
    "english": "spirit, soul, mind",
    "category": "Nouns: Body"
  },
  {
    "latin": "corpus, corporis, n",
    "type": "noun 3",
    "english": "body",
    "category": "Nouns: Body"
  },
  {
    "latin": "manus, manus, f",
    "type": "noun 4",
    "english": "hand, group of people",
    "category": "Nouns: Body"
  },
  {
    "latin": "pes, pedis, m",
    "type": "noun 3",
    "english": "foot",
    "category": "Nouns: Body"
  },
  {
    "latin": "sanguis, sanguinis, m",
    "type": "noun 3",
    "english": "blood",
    "category": "Nouns: Body"
  },
  {
    "latin": "vulnus, vulneris, n",
    "type": "noun 3",
    "english": "wound",
    "category": "Nouns: Body"
  },
  {
    "latin": "vultus, vultus, m",
    "type": "noun 4",
    "english": "expression, face",
    "category": "Nouns: Body"
  },
  {
    "latin": "ars, artis, f",
    "type": "noun 3",
    "english": "art, skill",
    "category": "Nouns: Communication"
  },
  {
    "latin": "clamor, clamoris, m",
    "type": "noun 3",
    "english": "shout, shouting, noise",
    "category": "Nouns: Communication"
  },
  {
    "latin": "consilium, consilii, n",
    "type": "noun 2",
    "english": "plan, idea, advice",
    "category": "Nouns: Communication"
  },
  {
    "latin": "epistula, epistulae, f",
    "type": "noun 1",
    "english": "letter",
    "category": "Nouns: Communication"
  },
  {
    "latin": "verbum, verbi, n",
    "type": "noun 2",
    "english": "word",
    "category": "Nouns: Communication"
  },
  {
    "latin": "vox, vocis, f",
    "type": "noun 3",
    "english": "voice, shout",
    "category": "Nouns: Communication"
  },
  {
    "latin": "amor, amoris, m",
    "type": "noun 3",
    "english": "love",
    "category": "Nouns: Emotion"
  },
  {
    "latin": "cura, curae, f",
    "type": "noun 1",
    "english": "care, worry",
    "category": "Nouns: Emotion"
  },
  {
    "latin": "gaudium, gaudii, n",
    "type": "noun 2",
    "english": "joy, pleasure",
    "category": "Nouns: Emotion"
  },
  {
    "latin": "ira, irae, f",
    "type": "noun 1",
    "english": "anger",
    "category": "Nouns: Emotion"
  },
  {
    "latin": "periculum, periculi, n",
    "type": "noun 2",
    "english": "danger",
    "category": "Nouns: Emotion"
  },
  {
    "latin": "spes, spei, f",
    "type": "noun 5",
    "english": "hope",
    "category": "Nouns: Emotion"
  },
  {
    "latin": "virtus, virtutis, f",
    "type": "noun 3",
    "english": "courage, virtue",
    "category": "Nouns: Emotion"
  },
  {
    "latin": "arma, armorum, n",
    "type": "noun 2 plural",
    "english": "arms, weapons",
    "category": "Nouns: Military"
  },
  {
    "latin": "auxilium, auxilii, n",
    "type": "noun 2",
    "english": "help",
    "category": "Nouns: Military"
  },
  {
    "latin": "bellum, belli, n",
    "type": "noun 2",
    "english": "war",
    "category": "Nouns: Military"
  },
  {
    "latin": "captivus, captivi, m",
    "type": "noun 2",
    "english": "captive, prisoner",
    "category": "Nouns: Military"
  },
  {
    "latin": "castra, castrorum, n",
    "type": "noun 2",
    "english": "camp",
    "category": "Nouns: Military"
  },
  {
    "latin": "comes, comitis, m and f",
    "type": "noun 3",
    "english": "comrade, companion",
    "category": "Nouns: Military"
  },
  {
    "latin": "copiae, copiarum, f",
    "type": "noun 1 plural",
    "english": "forces, troops",
    "category": "Nouns: Military"
  },
  {
    "latin": "custos, custodis, m and f",
    "type": "noun 3",
    "english": "guard",
    "category": "Nouns: Military"
  },
  {
    "latin": "dux, ducis, m",
    "type": "noun 3",
    "english": "leader",
    "category": "Nouns: Military"
  },
  {
    "latin": "exercitus, exercitus, m",
    "type": "noun 4",
    "english": "army",
    "category": "Nouns: Military"
  },
  {
    "latin": "gladius, gladii, m",
    "type": "noun 2",
    "english": "sword",
    "category": "Nouns: Military"
  },
  {
    "latin": "hostis, hostis, m",
    "type": "noun 3",
    "english": "enemy",
    "category": "Nouns: Military"
  },
  {
    "latin": "imperator, imperatoris, m",
    "type": "noun 3",
    "english": "emperor, general, leader",
    "category": "Nouns: Military"
  },
  {
    "latin": "imperium, imperii, n",
    "type": "noun 2",
    "english": "empire, power, command",
    "category": "Nouns: Military"
  },
  {
    "latin": "inimicus, inimici, m",
    "type": "noun 2",
    "english": "enemy",
    "category": "Nouns: Military"
  },
  {
    "latin": "legio, legionis, f",
    "type": "noun 3",
    "english": "legion",
    "category": "Nouns: Military"
  },
  {
    "latin": "miles, militis, m",
    "type": "noun 3",
    "english": "soldier",
    "category": "Nouns: Military"
  },
  {
    "latin": "mors, mortis, f",
    "type": "noun 3",
    "english": "death",
    "category": "Nouns: Military"
  },
  {
    "latin": "navis, navis, f",
    "type": "noun 3",
    "english": "ship",
    "category": "Nouns: Military"
  },
  {
    "latin": "pax, pacis, f",
    "type": "noun 3",
    "english": "peace",
    "category": "Nouns: Military"
  },
  {
    "latin": "princeps, principis, m",
    "type": "noun 3",
    "english": "chief, emperor",
    "category": "Nouns: Military"
  },
  {
    "latin": "proelium, proelii, n",
    "type": "noun 2",
    "english": "battle",
    "category": "Nouns: Military"
  },
  {
    "latin": "victoria, victoriae, f",
    "type": "noun 1",
    "english": "victory",
    "category": "Nouns: Military"
  },
  {
    "latin": "ager, agri, m",
    "type": "noun 2",
    "english": "field",
    "category": "Nouns: Nature"
  },
  {
    "latin": "aqua, aquae, f",
    "type": "noun 1",
    "english": "water",
    "category": "Nouns: Nature"
  },
  {
    "latin": "caelum, caeli, n",
    "type": "noun 2",
    "english": "sky, heaven",
    "category": "Nouns: Nature"
  },
  {
    "latin": "canis, canis, m and f",
    "type": "noun 3",
    "english": "dog",
    "category": "Nouns: Nature"
  },
  {
    "latin": "dea, deae, f",
    "type": "noun 1",
    "english": "goddess",
    "category": "Nouns: Nature"
  },
  {
    "latin": "deus, dei, m",
    "type": "noun 2",
    "english": "god",
    "category": "Nouns: Nature"
  },
  {
    "latin": "equus, equi, m",
    "type": "noun 2",
    "english": "horse",
    "category": "Nouns: Nature"
  },
  {
    "latin": "flumen, fluminis, n",
    "type": "noun 3",
    "english": "river",
    "category": "Nouns: Nature"
  },
  {
    "latin": "leo, leonis, m",
    "type": "noun 3",
    "english": "lion",
    "category": "Nouns: Nature"
  },
  {
    "latin": "lux, lucis, f",
    "type": "noun 3",
    "english": "light, daylight",
    "category": "Nouns: Nature"
  },
  {
    "latin": "mare, maris, n",
    "type": "noun 3",
    "english": "sea",
    "category": "Nouns: Nature"
  },
  {
    "latin": "mons, montis, m",
    "type": "noun 3",
    "english": "mountain",
    "category": "Nouns: Nature"
  },
  {
    "latin": "nox, noctis, f",
    "type": "noun 3",
    "english": "night",
    "category": "Nouns: Nature"
  },
  {
    "latin": "silva, silvae, f",
    "type": "noun 1",
    "english": "wood",
    "category": "Nouns: Nature"
  },
  {
    "latin": "tempestas, tempestatis, f",
    "type": "noun 3",
    "english": "storm",
    "category": "Nouns: Nature"
  },
  {
    "latin": "terra, terrae, f",
    "type": "noun 1",
    "english": "ground, land, country",
    "category": "Nouns: Nature"
  },
  {
    "latin": "cena, cenae, f",
    "type": "noun 1",
    "english": "dinner, meal",
    "category": "Nouns: Object"
  },
  {
    "latin": "cibus, cibi, m",
    "type": "noun 2",
    "english": "food",
    "category": "Nouns: Object"
  },
  {
    "latin": "donum, doni, n",
    "type": "noun 2",
    "english": "gift, present",
    "category": "Nouns: Object"
  },
  {
    "latin": "ianua, ianuae, f",
    "type": "noun 1",
    "english": "door",
    "category": "Nouns: Object"
  },
  {
    "latin": "insula, insulae, f",
    "type": "noun 1",
    "english": "island, block of flats",
    "category": "Nouns: Object"
  },
  {
    "latin": "iter, itineris, n",
    "type": "noun 3",
    "english": "journey",
    "category": "Nouns: Object"
  },
  {
    "latin": "labor, laboris, m",
    "type": "noun 3",
    "english": "work",
    "category": "Nouns: Object"
  },
  {
    "latin": "liber, libri, m",
    "type": "noun 2",
    "english": "book",
    "category": "Nouns: Object"
  },
  {
    "latin": "modus, modi, m",
    "type": "noun 2",
    "english": "manner, way, kind",
    "category": "Nouns: Object"
  },
  {
    "latin": "murus, muri, m",
    "type": "noun 2",
    "english": "wall",
    "category": "Nouns: Object"
  },
  {
    "latin": "nihil",
    "type": "noun irregular",
    "english": "nothing",
    "category": "Nouns: Object"
  },
  {
    "latin": "pars, partis, f",
    "type": "noun 3",
    "english": "part",
    "category": "Nouns: Object"
  },
  {
    "latin": "pecunia, pecuniae, f",
    "type": "noun 1",
    "english": "money",
    "category": "Nouns: Object"
  },
  {
    "latin": "poena, poenae, f",
    "type": "noun 1",
    "english": "punishment",
    "category": "Nouns: Object"
  },
  {
    "latin": "praemium, praemii, n",
    "type": "noun 2",
    "english": "prize, reward, profit",
    "category": "Nouns: Object"
  },
  {
    "latin": "res, rei, f",
    "type": "noun 5",
    "english": "thing, matter, event",
    "category": "Nouns: Object"
  },
  {
    "latin": "scelus, sceleris, n",
    "type": "noun 3",
    "english": "crime",
    "category": "Nouns: Object"
  },
  {
    "latin": "signum, signi, n",
    "type": "noun 2",
    "english": "sign, signal, standard",
    "category": "Nouns: Object"
  },
  {
    "latin": "vinum, vini, n",
    "type": "noun 2",
    "english": "wine",
    "category": "Nouns: Object"
  },
  {
    "latin": "amicus, amici, m",
    "type": "noun 2",
    "english": "friend",
    "category": "Nouns: People"
  },
  {
    "latin": "ancilla, ancillae, f",
    "type": "noun 1",
    "english": "slave girl, slave woman",
    "category": "Nouns: People"
  },
  {
    "latin": "caput, capitis, n",
    "type": "noun 3",
    "english": "head",
    "category": "Nouns: People"
  },
  {
    "latin": "civis, civis, m and f",
    "type": "noun 3",
    "english": "citizen",
    "category": "Nouns: People"
  },
  {
    "latin": "consul, consulis, m",
    "type": "noun 3",
    "english": "consul",
    "category": "Nouns: People"
  },
  {
    "latin": "domina, dominae, f",
    "type": "noun 1",
    "english": "mistress",
    "category": "Nouns: People"
  },
  {
    "latin": "dominus, domini, m",
    "type": "noun 2",
    "english": "master",
    "category": "Nouns: People"
  },
  {
    "latin": "femina, feminae, f",
    "type": "noun 1",
    "english": "woman",
    "category": "Nouns: People"
  },
  {
    "latin": "filia, filiae, f",
    "type": "noun 1",
    "english": "daughter",
    "category": "Nouns: People"
  },
  {
    "latin": "filius, filii, m",
    "type": "noun 2",
    "english": "son",
    "category": "Nouns: People"
  },
  {
    "latin": "frater, fratris, m",
    "type": "noun 3",
    "english": "brother",
    "category": "Nouns: People"
  },
  {
    "latin": "gens, gentis, f",
    "type": "noun 3",
    "english": "family, tribe, race, people",
    "category": "Nouns: People"
  },
  {
    "latin": "homo, hominis, m",
    "type": "noun 3",
    "english": "man, human being",
    "category": "Nouns: People"
  },
  {
    "latin": "iuvenis, iuvenis, m",
    "type": "noun 3",
    "english": "young man",
    "category": "Nouns: People"
  },
  {
    "latin": "liberi, liberorum, m",
    "type": "noun 2 plural",
    "english": "children",
    "category": "Nouns: People"
  },
  {
    "latin": "libertus, liberti, m",
    "type": "noun 2",
    "english": "freedman, ex-slave",
    "category": "Nouns: People"
  },
  {
    "latin": "maritus, mariti, m",
    "type": "noun 2",
    "english": "husband",
    "category": "Nouns: People"
  },
  {
    "latin": "mater, matris, f",
    "type": "noun 3",
    "english": "mother",
    "category": "Nouns: People"
  },
  {
    "latin": "mercator, mercatoris, m",
    "type": "noun 3",
    "english": "merchant",
    "category": "Nouns: People"
  },
  {
    "latin": "nauta, nautae, m",
    "type": "noun 1",
    "english": "sailor",
    "category": "Nouns: People"
  },
  {
    "latin": "nemo, neminis",
    "type": "noun(irregular)",
    "english": "no one, nobody",
    "category": "Nouns: People"
  },
  {
    "latin": "nomen, nominis, n",
    "type": "noun 3",
    "english": "name",
    "category": "Nouns: People"
  },
  {
    "latin": "nuntius, nuntii, m",
    "type": "noun 2",
    "english": "messenger, message, news",
    "category": "Nouns: People"
  },
  {
    "latin": "pater, patris, m",
    "type": "noun 3",
    "english": "father",
    "category": "Nouns: People"
  },
  {
    "latin": "puella, puellae, f",
    "type": "noun 1",
    "english": "girl",
    "category": "Nouns: People"
  },
  {
    "latin": "puer, pueri, m",
    "type": "noun 2",
    "english": "boy",
    "category": "Nouns: People"
  },
  {
    "latin": "regina, reginae, f",
    "type": "noun 1",
    "english": "queen",
    "category": "Nouns: People"
  },
  {
    "latin": "rex, regis, m",
    "type": "noun 3",
    "english": "king",
    "category": "Nouns: People"
  },
  {
    "latin": "senator, senatoris, m",
    "type": "noun 3",
    "english": "senator",
    "category": "Nouns: People"
  },
  {
    "latin": "senex, senis, m",
    "type": "noun 3",
    "english": "old man",
    "category": "Nouns: People"
  },
  {
    "latin": "servus, servi, m",
    "type": "noun 2",
    "english": "slave",
    "category": "Nouns: People"
  },
  {
    "latin": "turba, turbae, f",
    "type": "noun 1",
    "english": "crowd",
    "category": "Nouns: People"
  },
  {
    "latin": "uxor, uxoris, f",
    "type": "noun 3",
    "english": "wife",
    "category": "Nouns: People"
  },
  {
    "latin": "vir, viri, m",
    "type": "noun 2",
    "english": "man",
    "category": "Nouns: People"
  },
  {
    "latin": "domus, domus, f (domi = at home)",
    "type": "noun 4",
    "english": "home",
    "category": "Nouns: Places"
  },
  {
    "latin": "forum, fori, n",
    "type": "noun 2",
    "english": "forum, market place",
    "category": "Nouns: Places"
  },
  {
    "latin": "hortus, horti, m",
    "type": "noun 2",
    "english": "garden",
    "category": "Nouns: Places"
  },
  {
    "latin": "locus, loci, m",
    "type": "noun 2",
    "english": "place",
    "category": "Nouns: Places"
  },
  {
    "latin": "patria, patriae, f",
    "type": "noun 1",
    "english": "country, homeland",
    "category": "Nouns: Places"
  },
  {
    "latin": "porta, portae, f",
    "type": "noun 1",
    "english": "gate",
    "category": "Nouns: Places"
  },
  {
    "latin": "portus, portus, m",
    "type": "noun 4",
    "english": "harbour, port",
    "category": "Nouns: Places"
  },
  {
    "latin": "regnum, regni, n",
    "type": "noun 2",
    "english": "kingdom",
    "category": "Nouns: Places"
  },
  {
    "latin": "Roma, Romae, f",
    "type": "noun 1",
    "english": "Rome",
    "category": "Nouns: Places"
  },
  {
    "latin": "taberna, tabernae, f",
    "type": "noun 1",
    "english": "shop, inn",
    "category": "Nouns: Places"
  },
  {
    "latin": "templum, templi, n",
    "type": "noun 2",
    "english": "temple",
    "category": "Nouns: Places"
  },
  {
    "latin": "urbs, urbis, f",
    "type": "noun 3",
    "english": "city, town",
    "category": "Nouns: Places"
  },
  {
    "latin": "via, viae, f",
    "type": "noun 1",
    "english": "street, road, way",
    "category": "Nouns: Places"
  },
  {
    "latin": "villa, villae, f",
    "type": "noun 1",
    "english": "house, country villa",
    "category": "Nouns: Places"
  },
  {
    "latin": "annus, anni, m",
    "type": "noun 2",
    "english": "year",
    "category": "Nouns: Time"
  },
  {
    "latin": "dies, diei, m",
    "type": "noun 5",
    "english": "day",
    "category": "Nouns: Time"
  },
  {
    "latin": "hora, horae, f",
    "type": "noun 1",
    "english": "hour",
    "category": "Nouns: Time"
  },
  {
    "latin": "tempus, temporis, n",
    "type": "noun 3",
    "english": "time",
    "category": "Nouns: Time"
  },
  {
    "latin": "vita, vitae, f",
    "type": "noun 1",
    "english": "life",
    "category": "Nouns: Time"
  },
  {
    "latin": "audax, audacis",
    "type": "adjective",
    "english": "bold, daring",
    "category": "Adjectives: Favourable Attributes"
  },
  {
    "latin": "benignus, benigna, benignum",
    "type": "adjective",
    "english": "kind",
    "category": "Adjectives: Favourable Attributes"
  },
  {
    "latin": "bonus, bona, bonum",
    "type": "adjective",
    "english": "good",
    "category": "Adjectives: Favourable Attributes"
  },
  {
    "latin": "clarus, clara, clarum",
    "type": "adjective",
    "english": "famous, clear",
    "category": "Adjectives: Favourable Attributes"
  },
  {
    "latin": "diligens, diligentis",
    "type": "adjective",
    "english": "careful",
    "category": "Adjectives: Favourable Attributes"
  },
  {
    "latin": "felix, felicis",
    "type": "adjective",
    "english": "fortunate, happy",
    "category": "Adjectives: Favourable Attributes"
  },
  {
    "latin": "fidelis, fidele",
    "type": "adjective",
    "english": "faithful, loyal",
    "category": "Adjectives: Favourable Attributes"
  },
  {
    "latin": "fortis, forte",
    "type": "adjective",
    "english": "brave",
    "category": "Adjectives: Favourable Attributes"
  },
  {
    "latin": "laetus, laeta, laetum",
    "type": "adjective",
    "english": "happy",
    "category": "Adjectives: Favourable Attributes"
  },
  {
    "latin": "pulcher, pulchra, pulchrum",
    "type": "adjective",
    "english": "beautiful, handsome",
    "category": "Adjectives: Favourable Attributes"
  },
  {
    "latin": "qualis?, quale",
    "type": "adjective",
    "english": "what sort of?",
    "category": "Adjectives: Favourable Attributes"
  },
  {
    "latin": "Romanus, Romana, Romanum",
    "type": "adjective",
    "english": "Roman",
    "category": "Adjectives: Favourable Attributes"
  },
  {
    "latin": "sacer, sacra, sacrum",
    "type": "adjective",
    "english": "sacred",
    "category": "Adjectives: Favourable Attributes"
  },
  {
    "latin": "sapiens, sapientis",
    "type": "adjective",
    "english": "wise",
    "category": "Adjectives: Favourable Attributes"
  },
  {
    "latin": "talis, tale",
    "type": "adjective",
    "english": "such",
    "category": "Adjectives: Favourable Attributes"
  },
  {
    "latin": "tantus, tanta, tantum",
    "type": "adjective",
    "english": "so great, such a great",
    "category": "Adjectives: Favourable Attributes"
  },
  {
    "latin": "validus, valida, validum",
    "type": "adjective",
    "english": "strong",
    "category": "Adjectives: Favourable Attributes"
  },
  {
    "latin": "verus, vera, verum",
    "type": "adjective",
    "english": "true, real",
    "category": "Adjectives: Favourable Attributes"
  },
  {
    "latin": "crudelis, crudele",
    "type": "adjective",
    "english": "cruel",
    "category": "Adjectives: Negative Attributes"
  },
  {
    "latin": "dirus, dira, dirum",
    "type": "adjective",
    "english": "dreadful",
    "category": "Adjectives: Negative Attributes"
  },
  {
    "latin": "ferox, ferocis",
    "type": "adjective",
    "english": "fierce, ferocious",
    "category": "Adjectives: Negative Attributes"
  },
  {
    "latin": "infelix, infelicis",
    "type": "adjective",
    "english": "unlucky, unhappy",
    "category": "Adjectives: Negative Attributes"
  },
  {
    "latin": "iratus, irata, iratum",
    "type": "adjective",
    "english": "angry",
    "category": "Adjectives: Negative Attributes"
  },
  {
    "latin": "malus, mala, malum",
    "type": "adjective",
    "english": "evil, bad",
    "category": "Adjectives: Negative Attributes"
  },
  {
    "latin": "miser, misera, miserum",
    "type": "adjective",
    "english": "miserable, wretched, sad",
    "category": "Adjectives: Negative Attributes"
  },
  {
    "latin": "perterritus, perterrita, perterritum",
    "type": "adjective",
    "english": "terrified",
    "category": "Adjectives: Negative Attributes"
  },
  {
    "latin": "saevus, saeva, saevum",
    "type": "adjective",
    "english": "savage, cruel",
    "category": "Adjectives: Negative Attributes"
  },
  {
    "latin": "scelestus, scelesta, scelestum",
    "type": "adjective",
    "english": "wicked",
    "category": "Adjectives: Negative Attributes"
  },
  {
    "latin": "stultus, stulta, stultum",
    "type": "adjective",
    "english": "stupid, foolish",
    "category": "Adjectives: Negative Attributes"
  },
  {
    "latin": "tristis, triste",
    "type": "adjective",
    "english": "sad",
    "category": "Adjectives: Negative Attributes"
  },
  {
    "latin": "medius, media, medium",
    "type": "adjective",
    "english": "middle",
    "category": "Adjectives: Positional"
  },
  {
    "latin": "primus, prima, primum",
    "type": "adjective",
    "english": "first",
    "category": "Adjectives: Positional"
  },
  {
    "latin": "proximus, proxima, proximum",
    "type": "adjective",
    "english": "nearest, next to",
    "category": "Adjectives: Positional"
  },
  {
    "latin": "summus, summa, summum",
    "type": "adjective",
    "english": "highest, greatest, top (of)",
    "category": "Adjectives: Positional"
  },
  {
    "latin": "altus, alta, altum",
    "type": "adjective",
    "english": "high, deep",
    "category": "Adjectives: Size"
  },
  {
    "latin": "brevis, breve",
    "type": "adjective",
    "english": "short, brief",
    "category": "Adjectives: Size"
  },
  {
    "latin": "difficilis, difficile",
    "type": "adjective",
    "english": "difficult",
    "category": "Adjectives: Size"
  },
  {
    "latin": "facilis, facile",
    "type": "adjective",
    "english": "easy",
    "category": "Adjectives: Size"
  },
  {
    "latin": "gravis, grave",
    "type": "adjective",
    "english": "heavy, serious",
    "category": "Adjectives: Size"
  },
  {
    "latin": "ingens, ingentis",
    "type": "adjective",
    "english": "huge",
    "category": "Adjectives: Size"
  },
  {
    "latin": "longus, longa, longum",
    "type": "adjective",
    "english": "long",
    "category": "Adjectives: Size"
  },
  {
    "latin": "magnus, magna, magnum",
    "type": "adjective",
    "english": "big, large, great",
    "category": "Adjectives: Size"
  },
  {
    "latin": "multus, multa, multum",
    "type": "adjective",
    "english": "much, many",
    "category": "Adjectives: Size"
  },
  {
    "latin": "nonnulli, nonnullae, nonnulla",
    "type": "adjective",
    "english": "some, several",
    "category": "Adjectives: Size"
  },
  {
    "latin": "nullus, nulla, nullum",
    "type": "adjective",
    "english": "not any, no",
    "category": "Adjectives: Size"
  },
  {
    "latin": "omnis, omne",
    "type": "adjective",
    "english": "all, every",
    "category": "Adjectives: Size"
  },
  {
    "latin": "parvus, parva, parvum",
    "type": "adjective",
    "english": "small",
    "category": "Adjectives: Size"
  },
  {
    "latin": "plenus, plena, plenum",
    "type": "adjective",
    "english": "full",
    "category": "Adjectives: Size"
  },
  {
    "latin": "quantus?, quanta?, quantum?",
    "type": "adjective",
    "english": "how big? how much?",
    "category": "Adjectives: Size"
  },
  {
    "latin": "quot?",
    "type": "adjective",
    "english": "how many?",
    "category": "Adjectives: Size"
  },
  {
    "latin": "solus, sola, solum",
    "type": "adjective",
    "english": "alone, lonely, only, on one's own",
    "category": "Adjectives: Size"
  },
  {
    "latin": "tot",
    "type": "adjective",
    "english": "so many",
    "category": "Adjectives: Size"
  },
  {
    "latin": "totus, tota, totum",
    "type": "adjective",
    "english": "whole",
    "category": "Adjectives: Size"
  },
  {
    "latin": "celer, celeris, celere",
    "type": "adjective",
    "english": "quick, fast",
    "category": "Adjectives: Time"
  },
  {
    "latin": "lentus, lenta, lentum",
    "type": "adjective",
    "english": "slow",
    "category": "Adjectives: Time"
  },
  {
    "latin": "novus, nova, novum",
    "type": "adjective",
    "english": "new",
    "category": "Adjectives: Time"
  },
  {
    "latin": "vivus, viva, vivum",
    "type": "adjective",
    "english": "alive, living",
    "category": "Adjectives: Time"
  },
  {
    "latin": "adeo",
    "type": "adverb",
    "english": "so much, so greatly",
    "category": "Adverbs"
  },
  {
    "latin": "antea",
    "type": "adverb",
    "english": "before",
    "category": "Adverbs"
  },
  {
    "latin": "bene",
    "type": "adverb",
    "english": "well",
    "category": "Adverbs"
  },
  {
    "latin": "cras",
    "type": "adverb",
    "english": "tomorrow",
    "category": "Adverbs"
  },
  {
    "latin": "cur?",
    "type": "adverb",
    "english": "why?",
    "category": "Adverbs"
  },
  {
    "latin": "deinde",
    "type": "adverb",
    "english": "then",
    "category": "Adverbs"
  },
  {
    "latin": "diu",
    "type": "adverb",
    "english": "for a long time",
    "category": "Adverbs"
  },
  {
    "latin": "ecce!",
    "type": "adverb",
    "english": "look!",
    "category": "Adverbs"
  },
  {
    "latin": "etiam",
    "type": "adverb",
    "english": "also, even",
    "category": "Adverbs"
  },
  {
    "latin": "forte",
    "type": "adverb",
    "english": "by chance",
    "category": "Adverbs"
  },
  {
    "latin": "frustra",
    "type": "adverb",
    "english": "in vain",
    "category": "Adverbs"
  },
  {
    "latin": "heri",
    "type": "adverb",
    "english": "yesterday",
    "category": "Adverbs"
  },
  {
    "latin": "hic",
    "type": "adverb",
    "english": "here",
    "category": "Adverbs"
  },
  {
    "latin": "hodie",
    "type": "adverb",
    "english": "today",
    "category": "Adverbs"
  },
  {
    "latin": "iam",
    "type": "adverb",
    "english": "now, already",
    "category": "Adverbs"
  },
  {
    "latin": "ibi",
    "type": "adverb",
    "english": "there",
    "category": "Adverbs"
  },
  {
    "latin": "igitur",
    "type": "adverb",
    "english": "therefore, and so",
    "category": "Adverbs"
  },
  {
    "latin": "interea",
    "type": "adverb",
    "english": "meanwhile",
    "category": "Adverbs"
  },
  {
    "latin": "ita",
    "type": "adverb",
    "english": "in this way, to such an extent, so",
    "category": "Adverbs"
  },
  {
    "latin": "itaque",
    "type": "adverb",
    "english": "and so, therefore",
    "category": "Adverbs"
  },
  {
    "latin": "iterum",
    "type": "adverb",
    "english": "again",
    "category": "Adverbs"
  },
  {
    "latin": "libenter",
    "type": "adverb",
    "english": "willingly, gladly",
    "category": "Adverbs"
  },
  {
    "latin": "magis",
    "type": "adverb",
    "english": "more",
    "category": "Adverbs"
  },
  {
    "latin": "magnopere indeclinable)",
    "type": "adverb",
    "english": "greatly",
    "category": "Adverbs"
  },
  {
    "latin": "maxime",
    "type": "adverb",
    "english": "very greatly",
    "category": "Adverbs"
  },
  {
    "latin": "minime",
    "type": "adverb",
    "english": "very little, least, no",
    "category": "Adverbs"
  },
  {
    "latin": "mox",
    "type": "adverb",
    "english": "soon",
    "category": "Adverbs"
  },
  {
    "latin": "multo",
    "type": "adverb",
    "english": "much",
    "category": "Adverbs"
  },
  {
    "latin": "non",
    "type": "adverb",
    "english": "not",
    "category": "Adverbs"
  },
  {
    "latin": "nonne …?",
    "type": "adverb",
    "english": "surely ... ?",
    "category": "Adverbs"
  },
  {
    "latin": "numquam",
    "type": "adverb",
    "english": "never",
    "category": "Adverbs"
  },
  {
    "latin": "nunc",
    "type": "adverb",
    "english": "now",
    "category": "Adverbs"
  },
  {
    "latin": "olim",
    "type": "adverb",
    "english": "once, some time ago",
    "category": "Adverbs"
  },
  {
    "latin": "paene",
    "type": "adverb",
    "english": "almost, nearly",
    "category": "Adverbs"
  },
  {
    "latin": "postea",
    "type": "adverb",
    "english": "afterwards",
    "category": "Adverbs"
  },
  {
    "latin": "postridie",
    "type": "adverb",
    "english": "on the next day",
    "category": "Adverbs"
  },
  {
    "latin": "primo",
    "type": "adverb",
    "english": "at first",
    "category": "Adverbs"
  },
  {
    "latin": "quam",
    "type": "adverb",
    "english": "than",
    "category": "Adverbs"
  },
  {
    "latin": "quam? quam!",
    "type": "adverb",
    "english": "how … ? how … !",
    "category": "Adverbs"
  },
  {
    "latin": "quando?",
    "type": "adverb",
    "english": "when?",
    "category": "Adverbs"
  },
  {
    "latin": "quo?",
    "type": "adverb",
    "english": "to where?",
    "category": "Adverbs"
  },
  {
    "latin": "quomodo?",
    "type": "adverb",
    "english": "how?",
    "category": "Adverbs"
  },
  {
    "latin": "saepe",
    "type": "adverb",
    "english": "often",
    "category": "Adverbs"
  },
  {
    "latin": "satis",
    "type": "adverb",
    "english": "enough",
    "category": "Adverbs"
  },
  {
    "latin": "semper",
    "type": "adverb",
    "english": "always",
    "category": "Adverbs"
  },
  {
    "latin": "sic",
    "type": "adverb",
    "english": "thus, in this way",
    "category": "Adverbs"
  },
  {
    "latin": "simul",
    "type": "adverb",
    "english": "at the same time",
    "category": "Adverbs"
  },
  {
    "latin": "statim",
    "type": "adverb",
    "english": "at once, immediately",
    "category": "Adverbs"
  },
  {
    "latin": "subito",
    "type": "adverb",
    "english": "suddenly",
    "category": "Adverbs"
  },
  {
    "latin": "tam",
    "type": "adverb",
    "english": "so",
    "category": "Adverbs"
  },
  {
    "latin": "tamen",
    "type": "adverb",
    "english": "however"
  },
  {
    "latin": "tandem",
    "type": "adverb",
    "english": "at last, finally",
    "category": "Adverbs"
  },
  {
    "latin": "tum",
    "type": "adverb",
    "english": "then",
    "category": "Adverbs"
  },
  {
    "latin": "ubi",
    "type": "adverb",
    "english": "where? where, when",
    "category": "Adverbs"
  },
  {
    "latin": "umquam",
    "type": "adverb",
    "english": "ever",
    "category": "Adverbs"
  },
  {
    "latin": "unde",
    "type": "adverb",
    "english": "from where",
    "category": "Adverbs"
  },
  {
    "latin": "vehementer",
    "type": "adverb",
    "english": "violently, loudly",
    "category": "Adverbs"
  },
  {
    "latin": "aedifico, aedificare, aedificavi, aedificatus",
    "type": "verb 1",
    "english": "build",
    "category": "Verbs: Constructive Actions"
  },
  {
    "latin": "conor, conari, conatus sum",
    "type": "verb 1 deponent",
    "english": "try",
    "category": "Verbs: Constructive Actions"
  },
  {
    "latin": "custodio, custodire, custodivi, custoditus",
    "type": "verb 4",
    "english": "guard",
    "category": "Verbs: Constructive Actions"
  },
  {
    "latin": "defendo, defendere, defendi, defensus",
    "type": "verb 3",
    "english": "defend",
    "category": "Verbs: Constructive Actions"
  },
  {
    "latin": "doceo, docere, docui, doctus",
    "type": "verb 2",
    "english": "teach",
    "category": "Verbs: Constructive Actions"
  },
  {
    "latin": "emo, emere, emi, emptus",
    "type": "verb 3",
    "english": "buy",
    "category": "Verbs: Constructive Actions"
  },
  {
    "latin": "facio, facere, feci, factus",
    "type": "verb 3",
    "english": "make, do",
    "category": "Verbs: Constructive Actions"
  },
  {
    "latin": "hortor, hortari, hortatus sum",
    "type": "verb 1 deponent",
    "english": "encourage, urge",
    "category": "Verbs: Constructive Actions"
  },
  {
    "latin": "promitto, promittere, promisi, promissus",
    "type": "verb 3",
    "english": "promise",
    "category": "Verbs: Constructive Actions"
  },
  {
    "latin": "resisto, resistere, restiti + dative",
    "type": "verb 3",
    "english": "resist",
    "category": "Verbs: Constructive Actions"
  },
  {
    "latin": "servo, servare, servavi, servatus",
    "type": "verb 1",
    "english": "save, protect, keep",
    "category": "Verbs: Constructive Actions"
  },
  {
    "latin": "bellum, gero gerere, gessi, gestus",
    "type": "verb 3",
    "english": "wage war",
    "category": "Verbs: Destructive Actions"
  },
  {
    "latin": "capio, capere, cepi, captus",
    "type": "verb 3",
    "english": "take, catch, capture",
    "category": "Verbs: Destructive Actions"
  },
  {
    "latin": "cogo, cogere, coegi, coactus",
    "type": "verb 3",
    "english": "force, compel",
    "category": "Verbs: Destructive Actions"
  },
  {
    "latin": "deleo, delere, delevi, deletus",
    "type": "verb 2",
    "english": "destroy",
    "category": "Verbs: Destructive Actions"
  },
  {
    "latin": "incendo, incendere, incendi, incensus",
    "type": "verb 3",
    "english": "burn, set on fire",
    "category": "Verbs: Destructive Actions"
  },
  {
    "latin": "interficio, interficere, interfeci, interfectus",
    "type": "verb 3",
    "english": "kill",
    "category": "Verbs: Destructive Actions"
  },
  {
    "latin": "morior, mori, mortuus sum",
    "type": "verb 3 deponent",
    "english": "die",
    "category": "Verbs: Destructive Actions"
  },
  {
    "latin": "neco, necare, necavi, necatus",
    "type": "verb 1",
    "english": "kill",
    "category": "Verbs: Destructive Actions"
  },
  {
    "latin": "occido, occidere, occidi, occisus",
    "type": "verb 3",
    "english": "kill",
    "category": "Verbs: Destructive Actions"
  },
  {
    "latin": "opprimo, opprimere, oppressi, oppressus",
    "type": "verb 3",
    "english": "crush, overwhelm",
    "category": "Verbs: Destructive Actions"
  },
  {
    "latin": "oppugno, oppugnare, oppugnavi,oppugnatus",
    "type": "verb 1",
    "english": "attack",
    "category": "Verbs: Destructive Actions"
  },
  {
    "latin": "patior, pati, passus sum",
    "type": "verb 3 deponent",
    "english": "suffer, endure",
    "category": "Verbs: Destructive Actions"
  },
  {
    "latin": "pereo, perire, perii, peritus",
    "type": "verb irregular",
    "english": "die, perish",
    "category": "Verbs: Destructive Actions"
  },
  {
    "latin": "pugno, pugnare, pugnavi, pugnatus",
    "type": "verb 1",
    "english": "fight",
    "category": "Verbs: Destructive Actions"
  },
  {
    "latin": "punio, punire, punivi, punitus",
    "type": "verb 4",
    "english": "punish",
    "category": "Verbs: Destructive Actions"
  },
  {
    "latin": "rumpo, rumpere, rupi, ruptus",
    "type": "verb 3",
    "english": "break, burst",
    "category": "Verbs: Destructive Actions"
  },
  {
    "latin": "supero, superare, superavi, superatus",
    "type": "verb 1",
    "english": "overcome, overpower",
    "category": "Verbs: Destructive Actions"
  },
  {
    "latin": "vinco, vincere, vici, victus",
    "type": "verb 3",
    "english": "conquer, win, be victorious",
    "category": "Verbs: Destructive Actions"
  },
  {
    "latin": "vulnero, vulnerare, vulneravi, vulneratus",
    "type": "verb 1",
    "english": "wound, injure",
    "category": "Verbs: Destructive Actions"
  },
  {
    "latin": "amo, amare, amavi, amatus",
    "type": "verb 1",
    "english": "love, like",
    "category": "Verbs: Emotions and Feelings"
  },
  {
    "latin": "faveo, favere, favi, fautus + dative",
    "type": "verb 2",
    "english": "favour, support",
    "category": "Verbs: Emotions and Feelings"
  },
  {
    "latin": "gaudeo, gaudere, gavisus sum",
    "type": "verb 2",
    "english": "be pleased, rejoice",
    "category": "Verbs: Emotions and Feelings"
  },
  {
    "latin": "lacrimo, lacrimare, lacrimavi, lacrimatus",
    "type": "verb 1",
    "english": "weep, cry",
    "category": "Verbs: Emotions and Feelings"
  },
  {
    "latin": "laudo, laudare, laudavi, laudatus",
    "type": "verb 1",
    "english": "praise",
    "category": "Verbs: Emotions and Feelings"
  },
  {
    "latin": "malo, malle, malui",
    "type": "verb irregular",
    "english": "prefer",
    "category": "Verbs: Emotions and Feelings"
  },
  {
    "latin": "nolo, nolle, nolui",
    "type": "erb irregular",
    "english": "not want, refuse",
    "category": "Verbs: Emotions and Feelings"
  },
  {
    "latin": "precor, precari, precatus sum",
    "type": "verb 1 deponent",
    "english": "pray (to), beg",
    "category": "Verbs: Emotions and Feelings"
  },
  {
    "latin": "rideo, ridere, risi",
    "type": "verb 2",
    "english": "laugh, smile",
    "category": "Verbs: Emotions and Feelings"
  },
  {
    "latin": "spero, sperare, speravi, speratus",
    "type": "verb 1",
    "english": "hope, expect",
    "category": "Verbs: Emotions and Feelings"
  },
  {
    "latin": "terreo, terrere, terrui, territus",
    "type": "verb 2",
    "english": "frighten",
    "category": "Verbs: Emotions and Feelings"
  },
  {
    "latin": "timeo, timere, timui, timitus",
    "type": "verb 2",
    "english": "fear, be afraid",
    "category": "Verbs: Emotions and Feelings"
  },
  {
    "latin": "audeo, audere, ausus sum",
    "type": "verb 2",
    "english": "dare",
    "category": "Verbs: Perception, Sensory and Mental Processes"
  },
  {
    "latin": "audio, audire, audivi, auditus",
    "type": "verb 4",
    "english": "hear, listen to",
    "category": "Verbs: Perception, Sensory and Mental Processes"
  },
  {
    "latin": "bibo, bibere, bibi, bibitus",
    "type": "verb 3 drink",
    "english": "Verbs: Perception, Sensory and Mental Processes"
  },
  {
    "latin": "clamo, clamare, clamavi, clamatus",
    "type": "verb 1",
    "english": "shout",
    "category": "Verbs: Perception, Sensory and Mental Processes"
  },
  {
    "latin": "cogito, cogitare, cogitavi, cogitatus",
    "type": "verb 1",
    "english": "think, consider",
    "category": "Verbs: Perception, Sensory and Mental Processes"
  },
  {
    "latin": "cognosco, cognoscere, cognovi, cognitus",
    "type": "verb 3",
    "english": "get to know, find out",
    "category": "Verbs: Perception, Sensory and Mental Processes"
  },
  {
    "latin": "conspicio, conspicere, conspexi, conspectus",
    "type": "verb 3",
    "english": "catch sight of, notice",
    "category": "Verbs: Perception, Sensory and Mental Processes"
  },
  {
    "latin": "constituo, constituere, constitui, constitutus",
    "type": "verb 3",
    "english": "decide",
    "category": "Verbs: Perception, Sensory and Mental Processes"
  },
  {
    "latin": "consumo, consumere, consumpsi, consumptus",
    "type": "verb 3",
    "english": "eat",
    "category": "Verbs: Perception, Sensory and Mental Processes"
  },
  {
    "latin": "dico, dicere, dixi, dictus",
    "type": "verb 3",
    "english": "say",
    "category": "Verbs: Perception, Sensory and Mental Processes"
  },
  {
    "latin": "exspecto, exspectare, exspectavi, exspectatus",
    "type": "verb 1",
    "english": "wait for",
    "category": "Verbs: Perception, Sensory and Mental Processes"
  },
  {
    "latin": "iaceo, iacere, iacui",
    "type": "verb 2",
    "english": "lie",
    "category": "Verbs: Perception, Sensory and Mental Processes"
  },
  {
    "latin": "impero, imperare, imperavi, imperatus + dative",
    "type": "verb 1",
    "english": "order, command",
    "category": "Verbs: Perception, Sensory and Mental Processes"
  },
  {
    "latin": "inquit",
    "type": "verb irregular",
    "english": "says, said",
    "category": "Verbs: Perception, Sensory and Mental Processes"
  },
  {
    "latin": "intellego, intellegere, intellexi, intellectus",
    "type": "verb 3",
    "english": "understand, realise",
    "category": "Verbs: Perception, Sensory and Mental Processes"
  },
  {
    "latin": "invito invitare, invitavi, invitatus",
    "type": "verb 1",
    "english": "invite",
    "category": "Verbs: Perception, Sensory and Mental Processes"
  },
  {
    "latin": "iubeo, iubere, iussi, iussus",
    "type": "verb 2",
    "english": "order",
    "category": "Verbs: Perception, Sensory and Mental Processes"
  },
  {
    "latin": "lego, legere, legi, lectus",
    "type": "verb 3",
    "english": "read, choose",
    "category": "Verbs: Perception, Sensory and Mental Processes"
  },
  {
    "latin": "loquor, loqui, locutus sum",
    "type": "verb 3 deponent",
    "english": "speak",
    "category": "Verbs: Perception, Sensory and Mental Processes"
  },
  {
    "latin": "miror, mirari, miratus sum",
    "type": "verb 1 deponent",
    "english": "wonder at, admire",
    "category": "Verbs: Perception, Sensory and Mental Processes"
  },
  {
    "latin": "moneo, monere, monui, monitus",
    "type": "verb 2",
    "english": "warn, advise",
    "category": "Verbs: Perception, Sensory and Mental Processes"
  },
  {
    "latin": "narro, narrare, narravi, narratus",
    "type": "verb 1",
    "english": "tell, relate",
    "category": "Verbs: Perception, Sensory and Mental Processes"
  },
  {
    "latin": "nescio, nescire, nescivi",
    "type": "verb 4",
    "english": "not know",
    "category": "Verbs: Perception, Sensory and Mental Processes"
  },
  {
    "latin": "nuntio, nuntiare, nuntiavi, nuntiatus",
    "type": "verb 1",
    "english": "announce",
    "category": "Verbs: Perception, Sensory and Mental Processes"
  },
  {
    "latin": "oro, orare, oravi, oratus",
    "type": "verb 1",
    "english": "beg",
    "category": "Verbs: Perception, Sensory and Mental Processes"
  },
  {
    "latin": "persuadeo, persuadere, persuasi + dative",
    "type": "verb 2",
    "english": "persuade",
    "category": "Verbs: Perception, Sensory and Mental Processes"
  },
  {
    "latin": "puto, putare, putavi, putatus",
    "type": "erb 1",
    "english": "think",
    "category": "Verbs: Perception, Sensory and Mental Processes"
  },
  {
    "latin": "quaero, quaerere, quaesivi, quaesitus",
    "type": "verb 3",
    "english": "search for, look for, ask",
    "category": "Verbs: Perception, Sensory and Mental Processes"
  },
  {
    "latin": "respondeo, respondere, respondi, responsus",
    "type": "verb 2",
    "english": "reply",
    "category": "Verbs: Perception, Sensory and Mental Processes"
  },
  {
    "latin": "rogo, rogare, rogavi, rogatus",
    "type": "verb 1",
    "english": "ask, ask for",
    "category": "Verbs: Perception, Sensory and Mental Processes"
  },
  {
    "latin": "saluto, salutare, salutavi, salutatus",
    "type": "verb 1",
    "english": "greet",
    "category": "Verbs: Perception, Sensory and Mental Processes"
  },
  {
    "latin": "salve!, salvete!",
    "type": "verb imperative plural",
    "english": "hello!",
    "category": "Verbs: Perception, Sensory and Mental Processes"
  },
  {
    "latin": "scio, scire, scivi, scitus",
    "type": "verb 4",
    "english": "know",
    "category": "Verbs: Perception, Sensory and Mental Processes"
  },
  {
    "latin": "scribo, scribere, scripsi, scriptus",
    "type": "verb 3",
    "english": "write",
    "category": "Verbs: Perception, Sensory and Mental Processes"
  },
  {
    "latin": "sentio, sentire, sensi, sensus",
    "type": "verb 4",
    "english": "feel, notice",
    "category": "Verbs: Perception, Sensory and Mental Processes"
  },
  {
    "latin": "specto, spectare, spectavi, spectatus",
    "type": "verb 1",
    "english": "look at, watch",
    "category": "Verbs: Perception, Sensory and Mental Processes"
  },
  {
    "latin": "vale!, valete!",
    "type": "verb imperative plural",
    "english": "goodbye, farewell!",
    "category": "Verbs: Perception, Sensory and Mental Processes"
  },
  {
    "latin": "video, videre, vidi, visus",
    "type": "verb 2",
    "english": "see",
    "category": "Verbs: Perception, Sensory and Mental Processes"
  },
  {
    "latin": "voco, vocare, vocavi, vocatus",
    "type": "verb 1",
    "english": "call",
    "category": "Verbs: Perception, Sensory and Mental Processes"
  },
  {
    "latin": "accipio, accipere, accepi, acceptus",
    "type": "verb 3",
    "english": "accept, take in, receive",
    "category": "Verbs that Affect Motion or Position"
  },
  {
    "latin": "aufero, auferre, abstuli, ablatus",
    "type": "verb irregular",
    "english": "take away, carry off, steal",
    "category": "Verbs that Affect Motion or Position"
  },
  {
    "latin": "celo, celare, celavi, celatus",
    "type": "verb 1",
    "english": "hide",
    "category": "Verbs that Affect Motion or Position"
  },
  {
    "latin": "conficio, conficere, confeci, confectus",
    "type": "verb 3",
    "english": "finish, wear out",
    "category": "Verbs that Affect Motion or Position"
  },
  {
    "latin": "do, dare, dedi, datus",
    "type": "verb 1",
    "english": "give",
    "category": "Verbs that Affect Motion or Position"
  },
  {
    "latin": "duco, ducere, duxi, ductus",
    "type": "verb 3",
    "english": "lead, take",
    "category": "Verbs that Affect Motion or Position"
  },
  {
    "latin": "fero, ferre, tuli, latus",
    "type": "verb irregular",
    "english": "bring, carry, bear",
    "category": "Verbs that Affect Motion or Position"
  },
  {
    "latin": "iacio, iacere, ieci, iactus (in compounds -icio)",
    "type": "verb 3",
    "english": "throw",
    "category": "Verbs that Affect Motion or Position"
  },
  {
    "latin": "invenio, invenire, inveni, inventus",
    "type": "verb 4",
    "english": "find",
    "category": "Verbs that Affect Motion or Position"
  },
  {
    "latin": "libero, liberare, liberavi, liberatus",
    "type": "verb 1",
    "english": "set free",
    "category": "Verbs that Affect Motion or Position"
  },
  {
    "latin": "mitto, mittere, misi, missus",
    "type": "verb 3",
    "english": "send",
    "category": "Verbs that Affect Motion or Position"
  },
  {
    "latin": "moveo, movere, movi, motus",
    "type": "verb 2",
    "english": "move",
    "category": "Verbs that Affect Motion or Position"
  },
  {
    "latin": "offero, offerre, obtuli, oblatus",
    "type": "verb irregular",
    "english": "offer",
    "category": "Verbs that Affect Motion or Position"
  },
  {
    "latin": "ostendo, ostendere, ostendi, ostentus",
    "type": "verb 3",
    "english": "show",
    "category": "Verbs that Affect Motion or Position"
  },
  {
    "latin": "paro, parare, paravi, paratus",
    "type": "verb 1",
    "english": "prepare",
    "category": "Verbs that Affect Motion or Position"
  },
  {
    "latin": "pello, pellere, pepuli, pulsus",
    "type": "verb 3",
    "english": "drive",
    "category": "Verbs that Affect Motion or Position"
  },
  {
    "latin": "pono, ponere, posui, positus",
    "type": "verb 3",
    "english": "put, place, put up",
    "category": "Verbs that Affect Motion or Position"
  },
  {
    "latin": "porto, portare, portavi, portatus",
    "type": "verb 1",
    "english": "carry",
    "category": "Verbs that Affect Motion or Position"
  },
  {
    "latin": "rapio, rapere, rapui, raptus",
    "type": "verb 3",
    "english": "seize, grab",
    "category": "Verbs that Affect Motion or Position"
  },
  {
    "latin": "reddo, reddere, reddidi, redditus",
    "type": "verb 3",
    "english": "give back, restore",
    "category": "Verbs that Affect Motion or Position"
  },
  {
    "latin": "refero, referre, rettuli, relatus",
    "type": "verb irregular",
    "english": "bring, carry back, report, tell",
    "category": "Verbs that Affect Motion or Position"
  },
  {
    "latin": "relinquo, relinquere, reliqui, relictus",
    "type": "verb 3",
    "english": "leave, leave behind",
    "category": "Verbs that Affect Motion or Position"
  },
  {
    "latin": "teneo, tenere, tenui, tentus",
    "type": "verb 2",
    "english": "hold",
    "category": "Verbs that Affect Motion or Position"
  },
  {
    "latin": "tollo, tollere, sustuli, sublatus",
    "type": "verb 3",
    "english": "raise, lift up, hold up",
    "category": "Verbs that Affect Motion or Position"
  },
  {
    "latin": "trado, tradere, tradidi, traditus",
    "type": "verb 3",
    "english": "hand over",
    "category": "Verbs that Affect Motion or Position"
  },
  {
    "latin": "traho, trahere, traxi, tractus",
    "type": "verb 3",
    "english": "drag",
    "category": "Verbs that Affect Motion or Position"
  },
  {
    "latin": "vendo, vendere, vendidi, venditus",
    "type": "verb 3",
    "english": "sell",
    "category": "Verbs that Affect Motion or Position"
  },
  {
    "latin": "verto, vertere, verti, versus",
    "type": "verb 3",
    "english": "turn",
    "category": "Verbs that Affect Motion or Position"
  },
  {
    "latin": "absum, abesse, afui",
    "type": "verb irregular",
    "english": "am absent, am away, am distant from",
    "category": "Verbs that Affect the State of a Subject"
  },
  {
    "latin": "accido, accidere, accidi",
    "type": "verb 3",
    "english": "happen",
    "category": "Verbs that Affect the State of a Subject"
  },
  {
    "latin": "adsum, adesse, adfui",
    "type": "verb irregular",
    "english": "be here, be present",
    "category": "Verbs that Affect the State of a Subject"
  },
  {
    "latin": "credo, credere, credidi, creditus + dative",
    "type": "verb 3",
    "english": "believe, trust",
    "category": "Verbs that Affect the State of a Subject"
  },
  {
    "latin": "cupio, cupere, cupivi, cupitus",
    "type": "verb 3",
    "english": "want, desire",
    "category": "Verbs that Affect the State of a Subject"
  },
  {
    "latin": "debeo, debere, debui, debitus",
    "type": "verb 2",
    "english": "owe, ought, should, must",
    "category": "Verbs that Affect the State of a Subject"
  },
  {
    "latin": "dormio, dormire, dormivi",
    "type": "verb 4",
    "english": "sleep",
    "category": "Verbs that Affect the State of a Subject"
  },
  {
    "latin": "habeo, habere, habui, habitus",
    "type": "verb 2",
    "english": "have",
    "category": "Verbs that Affect the State of a Subject"
  },
  {
    "latin": "habito, habitare, habitavi, habitatus",
    "type": "verb 1",
    "english": "live",
    "category": "Verbs that Affect the State of a Subject"
  },
  {
    "latin": "possum, posse, potui",
    "type": "verb irregular",
    "english": "can, be able",
    "category": "Verbs that Affect the State of a Subject"
  },
  {
    "latin": "rego, regere, rexi, rectus",
    "type": "verb 3",
    "english": "rule",
    "category": "Verbs that Affect the State of a Subject"
  },
  {
    "latin": "sedeo, sedere, sedi",
    "type": "verb 2",
    "english": "sit",
    "category": "Verbs that Affect the State of a Subject"
  },
  {
    "latin": "soleo, solere, solitus sum",
    "type": "verb 2",
    "english": "be accustomed",
    "category": "Verbs that Affect the State of a Subject"
  },
  {
    "latin": "sum, esse, fui",
    "type": "verb irregular",
    "english": "to be",
    "category": "Verbs that Affect the State of a Subject"
  },
  {
    "latin": "taceo, tacere, tacui, tacitus",
    "type": "verb 2",
    "english": "be silent, be quiet",
    "category": "Verbs that Affect the State of a Subject"
  },
  {
    "latin": "videor, videri, visus sum",
    "type": "verb 2 deponent",
    "english": "seem, appear",
    "category": "Verbs that Affect the State of a Subject"
  },
  {
    "latin": "vivo, vivere, vixi",
    "type": "verb 3",
    "english": "live, be alive",
    "category": "Verbs that Affect the State of a Subject"
  },
  {
    "latin": "volo, velle, volui",
    "type": "verb irregular",
    "english": "want",
    "category": "Verbs that Affect the State of a Subject"
  },
  {
    "latin": "advenio, advenire, adveni",
    "type": "verb 4",
    "english": "arrive",
    "category": "Verbs that Affect the Motion or Location of a Subject"
  },
  {
    "latin": "ago, agere, egi, actus",
    "type": "verb 3",
    "english": "do, act, drive",
    "category": "Verbs that Affect the Motion or Location of a Subject"
  },
  {
    "latin": "ambulo, ambulare, ambulavi",
    "type": "verb 1",
    "english": "walk",
    "category": "Verbs that Affect the Motion or Location of a Subject"
  },
  {
    "latin": "appareo, apparere, apparui",
    "type": "verb 2",
    "english": "appear",
    "category": "Verbs that Affect the Motion or Location of a Subject"
  },
  {
    "latin": "appropinquo, appropinquare, appropinquavi + dative",
    "type": "verb 1",
    "english": "approach, come near to",
    "category": "Verbs that Affect the Motion or Location of a Subject"
  },
  {
    "latin": "ascendo, ascendere, ascendi, ascensus",
    "type": "verb 3",
    "english": "climb",
    "category": "Verbs that Affect the Motion or Location of a Subject"
  },
  {
    "latin": "cado, cadere, cecidi, casus",
    "type": "verb 3",
    "english": "fall",
    "category": "Verbs that Affect the Motion or Location of a Subject"
  },
  {
    "latin": "coepi, coepisse",
    "type": "verb irregular",
    "english": "begin",
    "category": "Verbs that Affect the Motion or Location of a Subject"
  },
  {
    "latin": "convenio, convenire, conveni",
    "type": "verb 4",
    "english": "come together, gather, meet",
    "category": "Verbs that Affect the Motion or Location of a Subject"
  },
  {
    "latin": "curro, currere, cucurri, cursus",
    "type": "verb 3",
    "english": "run",
    "category": "Verbs that Affect the Motion or Location of a Subject"
  },
  {
    "latin": "descendo, descendere, descendi, descensus",
    "type": "verb 3",
    "english": "go down, come down",
    "category": "Verbs that Affect the Motion or Location of a Subject"
  },
  {
    "latin": "discedo, discedere, discessi",
    "type": "verb 3",
    "english": "depart, leave",
    "category": "Verbs that Affect the Motion or Location of a Subject"
  },
  {
    "latin": "effugio, effugere, effugi",
    "type": "verb 3",
    "english": "escape",
    "category": "Verbs that Affect the Motion or Location of a Subject"
  },
  {
    "latin": "egredior, egredi, egressus sum",
    "type": "verb 3 deponent",
    "english": "go out",
    "category": "Verbs that Affect the Motion or Location of a Subject"
  },
  {
    "latin": "eo, ire, i(v)i",
    "type": "verb irregular",
    "english": "go",
    "category": "Verbs that Affect the Motion or Location of a Subject"
  },
  {
    "latin": "festino, festinare, festinavi",
    "type": "verb 1",
    "english": "hurry",
    "category": "Verbs that Affect the Motion or Location of a Subject"
  },
  {
    "latin": "fugio, fugere, fugi",
    "type": "verb 3",
    "english": "run away, flee",
    "category": "Verbs that Affect the Motion or Location of a Subject"
  },
  {
    "latin": "ingredior, ingredi, ingressus sum",
    "type": "verb 3 deponent",
    "english": "enter",
    "category": "Verbs that Affect the Motion or Location of a Subject"
  },
  {
    "latin": "intro, intrare, intravi, intratus",
    "type": "verb 1",
    "english": "enter",
    "category": "Verbs that Affect the Motion or Location of a Subject"
  },
  {
    "latin": "laboro, laborare, laboravi",
    "type": "verb 1",
    "english": "work",
    "category": "Verbs that Affect the Motion or Location of a Subject"
  },
  {
    "latin": "maneo, manere, mansi",
    "type": "verb 2",
    "english": "remain, stay",
    "category": "Verbs that Affect the Motion or Location of a Subject"
  },
  {
    "latin": "navigo, navigare, navigavi",
    "type": "verb 1",
    "english": "sail",
    "category": "Verbs that Affect the Motion or Location of a Subject"
  },
  {
    "latin": "pervenio, pervenire, perveni, perventus",
    "type": "verb 4",
    "english": "reach, arrive at",
    "category": "Verbs that Affect the Motion or Location of a Subject"
  },
  {
    "latin": "peto, petere, petivi, petitus",
    "type": "verb 3",
    "english": "make for, seek, beg, ask for",
    "category": "Verbs that Affect the Motion or Location of a Subject"
  },
  {
    "latin": "procedo, procedere, processi",
    "type": "verb 3",
    "english": "advance, proceed",
    "category": "Verbs that Affect the Motion or Location of a Subject"
  },
  {
    "latin": "proficiscor, proficisci, profectus sum",
    "type": "verb 3 deponent",
    "english": "set out",
    "category": "Verbs that Affect the Motion or Location of a Subject"
  },
  {
    "latin": "progredior, progredi, progressus sum",
    "type": "verb 3 deponent",
    "english": "advance",
    "category": "Verbs that Affect the Motion or Location of a Subject"
  },
  {
    "latin": "redeo, redire, redii",
    "type": "verb irregular",
    "english": "go back, come back, return",
    "category": "Verbs that Affect the Motion or Location of a Subject"
  },
  {
    "latin": "regredior, regredi, regressus sum",
    "type": "verb 3 deponent",
    "english": "go back, return",
    "category": "Verbs that Affect the Motion or Location of a Subject"
  },
  {
    "latin": "sequor, sequi, secutus sum",
    "type": "verb 3 deponent",
    "english": "follow",
    "category": "Verbs that Affect the Motion or Location of a Subject"
  },
  {
    "latin": "sto, stare, steti",
    "type": "verb 1",
    "english": "stand",
    "category": "Verbs that Affect the Motion or Location of a Subject"
  },
  {
    "latin": "surgo, surgere, surrexi",
    "type": "verb 3",
    "english": "get up, stand up, rise",
    "category": "Verbs that Affect the Motion or Location of a Subject"
  },
  {
    "latin": "venio, venire, veni",
    "type": "verb 4",
    "english": "come",
    "category": "Verbs that Affect the Motion or Location of a Subject"
  },
  {
    "latin": "-que",
    "type": "conjunction",
    "english": "and",
    "category": "Conjunctions"
  },
  {
    "latin": "ac, atque",
    "type": "conjunction",
    "english": "and",
    "category": "Conjunctions"
  },
  {
    "latin": "autem",
    "type": "conjunction",
    "english": "but, however",
    "category": "Conjunctions"
  },
  {
    "latin": "cum",
    "type": "conjunction",
    "english": "when, since",
    "category": "Conjunctions"
  },
  {
    "latin": "dum",
    "type": "conjunction",
    "english": "while, until",
    "category": "Conjunctions"
  },
  {
    "latin": "enim",
    "type": "conjunction",
    "english": "for",
    "category": "Conjunctions"
  },
  {
    "latin": "et",
    "type": "conjunction",
    "english": "and",
    "category": "Conjunctions"
  },
  {
    "latin": "nam",
    "type": "conjunction",
    "english": "for",
    "category": "Conjunctions"
  },
  {
    "latin": "ne  + subjunctive",
    "type": "conjunction",
    "english": "that ... not, so that ... not, that, lest",
    "category": "Conjunctions"
  },
  {
    "latin": "nec, neque",
    "type": "conjunction",
    "english": "and not, nor, neither",
    "category": "Conjunctions"
  },
  {
    "latin": "nisi",
    "type": "conjunction",
    "english": "unless, except",
    "category": "Conjunctions"
  },
  {
    "latin": "postquam",
    "type": "conjunction",
    "english": "after, when",
    "category": "Conjunctions"
  },
  {
    "latin": "quamquam",
    "type": "conjunction",
    "english": "although",
    "category": "Conjunctions"
  },
  {
    "latin": "quod",
    "type": "conjunction",
    "english": "because",
    "category": "Conjunctions"
  },
  {
    "latin": "quoque",
    "type": "conjunction",
    "english": "also, too",
    "category": "Conjunctions"
  },
  {
    "latin": "sed",
    "type": "conjunction",
    "english": "but",
    "category": "Conjunctions"
  },
  {
    "latin": "si",
    "type": "conjunction",
    "english": "if",
    "category": "Conjunctions"
  },
  {
    "latin": "simulac, simulatque",
    "type": "conjunction",
    "english": "as soon as",
    "category": "Conjunctions"
  },
  {
    "latin": "ut  + subjunctive",
    "type": "conjunction",
    "english": "that, so that, in order that",
    "category": "Conjunctions"
  },
  {
    "latin": "ut  + indicative",
    "type": "conjunction",
    "english": "as, when",
    "category": "Conjunctions"
  },
  {
    "latin": "ego, mei",
    "type": "pronoun",
    "english": "I, me",
    "category": "Pronouns and Pronominal Adjectives"
  },
  {
    "latin": "hic, haec, hoc",
    "type": "pronoun",
    "english": "this, he, she, it",
    "category": "Pronouns and Pronominal Adjectives"
  },
  {
    "latin": "idem, eadem, idem",
    "type": "pronoun",
    "english": "the same",
    "category": "Pronouns and Pronominal Adjectives"
  },
  {
    "latin": "ille, illa, illud",
    "type": "pronoun",
    "english": "that, he, she, it",
    "category": "Pronouns and Pronominal Adjectives"
  },
  {
    "latin": "ipse, ipsa, ipsum",
    "type": "pronoun",
    "english": "himself, herself, itself, themselves",
    "category": "Pronouns and Pronominal Adjectives"
  },
  {
    "latin": "is, ea, id",
    "type": "pronoun",
    "english": "this, that, he, she, it, them",
    "category": "Pronouns and Pronominal Adjectives"
  },
  {
    "latin": "meus, mea, meum",
    "type": "pronoun",
    "english": "my",
    "category": "Pronouns and Pronominal Adjectives"
  },
  {
    "latin": "nos, nostrum",
    "type": "pronoun",
    "english": "we, us",
    "category": "Pronouns and Pronominal Adjectives"
  },
  {
    "latin": "noster, nostra, nostrum",
    "type": "pronoun",
    "english": "our",
    "category": "Pronouns and Pronominal Adjectives"
  },
  {
    "latin": "qui, quae, quod",
    "type": "pronoun",
    "english": "who, which",
    "category": "Pronouns and Pronominal Adjectives"
  },
  {
    "latin": "quidam, quaedam, quoddam",
    "type": "pronoun",
    "english": "one, a certain, some",
    "category": "Pronouns and Pronominal Adjectives"
  },
  {
    "latin": "quis? quid?",
    "type": "pronoun",
    "english": "who? what?",
    "category": "Pronouns and Pronominal Adjectives"
  },
  {
    "latin": "se, sui",
    "type": "pronoun",
    "english": "himself, herself, itself, themselves",
    "category": "Pronouns and Pronominal Adjectives"
  },
  {
    "latin": "suus, sua, suum",
    "type": "pronoun",
    "english": "his, her, its, their (own)",
    "category": "Pronouns and Pronominal Adjectives"
  },
  {
    "latin": "tu, tui",
    "type": "pronoun",
    "english": "you (singular)",
    "category": "Pronouns and Pronominal Adjectives"
  },
  {
    "latin": "tuus, tua, tuum",
    "type": "pronoun",
    "english": "your (singular), yours",
    "category": "Pronouns and Pronominal Adjectives"
  },
  {
    "latin": "vester, vestra, vestrum",
    "type": "pronoun",
    "english": "your (plural), yours",
    "category": "Pronouns and Pronominal Adjectives"
  },
  {
    "latin": "vos, vestrum",
    "type": "pronoun",
    "english": "you (plural)",
    "category": "Pronouns and Pronominal Adjectives"
  },
  {
    "latin": "alius, alia, aliud",
    "type": "pronoun",
    "english": "other, another, else",
    "category": "Pronouns and Pronominal Adjectives"
  },
  {
    "latin": "alter, altera, alterum",
    "type": "pronoun",
    "english": "the other, another, the second of two",
    "category": "Pronouns and Pronominal Adjectives"
  },
  {
    "latin": "ceteri, ceterae, cetera",
    "type": "adjective",
    "english": "the rest, the others",
    "category": "Pronouns and Pronominal Adjectives"
  },
  {
    "latin": "-ne",
    "type": "particle",
    "english": "(introduces question)",
    "category": "Particles"
  },
  {
    "latin": "num",
    "type": "particle",
    "english": "whether",
    "category": "Particles"
  },
  {
    "latin": "num ... ?",
    "type": "particle",
    "english": "surely … not?",
    "category": "Particles"
  },
  {
    "latin": "re-",
    "type": "prefix",
    "english": "-back",
    "category": "Particles"
  },
  {
    "latin": "a, ab (+ ablative)",
    "type": "preposition",
    "english": "from, away from, by",
    "category": "Prepositions"
  },
  {
    "latin": "ad (+ accusative)",
    "type": "preposition",
    "english": "to, towards, at",
    "category": "Prepositions"
  },
  {
    "latin": "ante (+ accusative)",
    "type": "preposition",
    "english": "before, in front of",
    "category": "Prepositions"
  },
  {
    "latin": "apud (+ accusative)",
    "type": "preposition",
    "english": "among, with, at the house of",
    "category": "Prepositions"
  },
  {
    "latin": "circum (+ accusative)",
    "type": "preposition",
    "english": "around",
    "category": "Prepositions"
  },
  {
    "latin": "contra (+ accusative)",
    "type": "preposition",
    "english": "against",
    "category": "Prepositions"
  },
  {
    "latin": "cum (+ ablative)",
    "type": "preposition",
    "english": "with",
    "category": "Prepositions"
  },
  {
    "latin": "de (+ ablative)",
    "type": "preposition",
    "english": "from, down from, about",
    "category": "Prepositions"
  },
  {
    "latin": "e, ex (+ ablative)",
    "type": "preposition",
    "english": "from, out of, out",
    "category": "Prepositions"
  },
  {
    "latin": "in (+ ablative)",
    "type": "preposition",
    "english": "in, on",
    "category": "Prepositions"
  },
  {
    "latin": "in (+ accusative)",
    "type": "preposition",
    "english": "into, onto",
    "category": "Prepositions"
  },
  {
    "latin": "inter (+ accusative)",
    "type": "preposition",
    "english": "among, between",
    "category": "Prepositions"
  },
  {
    "latin": "per (+ accusative)",
    "type": "preposition",
    "english": "through, along",
    "category": "Prepositions"
  },
  {
    "latin": "post (+ accusative)",
    "type": "preposition",
    "english": "after, behind",
    "category": "Prepositions"
  },
  {
    "latin": "pro (+ ablative)",
    "type": "preposition",
    "english": "in front of, for, in return for",
    "category": "Prepositions"
  },
  {
    "latin": "prope (+ accusative)",
    "type": "preposition",
    "english": "near",
    "category": "Prepositions"
  },
  {
    "latin": "propter (+ accusative)",
    "type": "preposition",
    "english": "on account of, because of",
    "category": "Prepositions"
  },
  {
    "latin": "sine (+ ablative)",
    "type": "preposition",
    "english": "without",
    "category": "Prepositions"
  },
  {
    "latin": "sub (+ accusative or ablative)",
    "type": "preposition",
    "english": "under, beneath",
    "category": "Prepositions"
  },
  {
    "latin": "trans (+ accusative)",
    "type": "preposition",
    "english": "across",
    "category": "Prepositions"
  }
]
